…
+     if(x <= 15){ #? no caso, o valor é 300
+         return("Executei essa ação")
+     }else{
+         
+         return("Executei Aquela ação")
+     }
+ }
> 
> f(10)
[1] "Executei essa ação"
> dados %>%
+ rowwise() %>%
+ mutate ( nova_var = f(height)) %>%
+ select(height, nova_var) %>% head(30)
# A tibble: 30 × 2
# Rowwise: 
   height nova_var            
    <int> <chr>               
 1      7 Executei essa ação  
 2     10 Executei essa ação  
 3     20 Executei Aquela ação
 4      6 Executei essa ação  
 5     11 Executei essa ação  
 6     17 Executei Aquela ação
 7      5 Executei essa ação  
 8     10 Executei essa ação  
 9     16 Executei Aquela ação
10      3 Executei essa ação  
# ? 20 more rows
# ? Use `print(n = ...)` to see more rows
…
